[
    {
        "group": "Ma S\u00e9lection",
        "image": "",
        "stations": [
            {
                "name": "BFM",
                "image": "",
                "url": "http://chai5she.cdn.dvmr.fr/bfmbusiness"
            },
            {
                "name": "Europe 1",
                "image": "",
                "url": "http://mp3lg3.scdn.arkena.com/10489/europe1.mp3"
            },
            {
                "name": "Fun Radio",
                "image": "",
                "url": "http://streaming.radio.funradio.fr/fun-1-44-128"
            },
            {
                "name": "MFM",
                "image": "",
                "url": "http://mfm.ice.infomaniak.ch/mfm-128.mp3"
            },
            {
                "name": "RFM",
                "image": "",
                "url": "http://rfm-live-mp3-64.scdn.arkena.com/rfm.mp3"
            },
            {
                "name": "RTL",
                "image": "",
                "url": "http://streaming.radio.rtl.fr/rtl-1-44-128"
            },
            {
                "name": "RTL2",
                "image": "",
                "url": "http://streaming.radio.rtl2.fr/rtl2-1-44-128"
            },
            {
                "name": "RMC",
                "image": "",
                "url": "http://rmc.scdn.arkena.com/rmc.mp3"
            },
            {
                "name": "Sud Radio",
                "image": "",
                "url": "http://broadcast.infomaniak.net:80/start-sud-high.mp3"
            },
            {
                "name": "Frequence 3",
                "image": "",
                "url": "http://www.frequence3.fr/plugins/winamp192.m3u"
            },
            {
                "name": "Size Radio",
                "image": "",
                "url": "http://size.ice.infomaniak.ch/size-128.mp3"
            },
            {
                "name": "The Current",
                "image": "",
                "url": "http://current.stream.publicradio.org/kcmp.mp3"
            },
            {
                "name": "Topmusic",
                "image": "",
                "url": "http://players.creacast.com/creacast/topmusic/playlist.m3u"
            },
            {
                "name": "Wit FM",
                "image": "",
                "url": "http://start-witfm.ice.infomaniak.ch/start-witfm-32.aac"
            },
            {
                "name": "NRJ",
                "image": "",
                "url": "http://cdn.nrjaudio.fm/audio1/fr/30001/mp3_128.mp3?origine=fluxradios"
            }
        ]
    },
    {
        "group": "Radio France",
        "image": "",
        "stations": [
            {
                "name": "France Inter",
                "image": "",
                "url": "http://direct.franceinter.fr/live/franceinter-midfi.mp3"
            },
            {
                "name": "France Info",
                "image": "",
                "url": "http://direct.franceinfo.fr/live/franceinfo-midfi.mp3"
            },
            {
                "name": "France Culture",
                "image": "",
                "url": "http://direct.franceculture.fr/live/franceculture-midfi.mp3"
            },
            {
                "name": "France Musique",
                "image": "",
                "url": "http://direct.francemusique.fr/live/francemusique-midfi.mp3"
            },
            {
                "name": "France Musique - Classique Easy",
                "image": "",
                "url": "http://direct.francemusique.fr/live/francemusiqueeasyclassique-hifi.mp3"
            },
            {
                "name": "France Musique - Classique Plus",
                "image": "",
                "url": "http://direct.francemusique.fr/live/francemusiqueclassiqueplus-hifi.mp3"
            },
            {
                "name": "France Musique - Concerts Radio France",
                "image": "",
                "url": "http://direct.francemusique.fr/live/francemusiqueconcertsradiofrance-hifi.mp3"
            },
            {
                "name": "France Musique - Musiques du monde",
                "image": "",
                "url": "http://direct.francemusique.fr/live/francemusiqueocoramonde-hifi.mp3"
            },
            {
                "name": "France Musique - La Jazz",
                "image": "",
                "url": "http://direct.francemusique.fr/live/francemusiquelajazz-hifi.mp3"
            },
            {
                "name": "France Musique - La Contemporaine",
                "image": "",
                "url": "http://direct.francemusique.fr/live/francemusiquelacontemporaine-hifi.mp3"
            },
            {
                "name": "France Musique - L\u2019\u00e9v\u00e9nementielle",
                "image": "",
                "url": "http://direct.francemusique.fr/live/francemusiquelevenementielle-hifi.mp3"
            },
            {
                "name": "FIP",
                "image": "",
                "url": "http://direct.fipradio.fr/live/fip-midfi.mp3"
            },
            {
                "name": "Mouv'",
                "image": "",
                "url": "http://direct.mouv.fr/live/mouv-midfi.mp3"
            },
            {
                "name": "RFI",
                "image": "",
                "url": "http://live02.rfi.fr/rfimonde-96k.mp3"
            }
        ]
    },
    {
        "group": "France Bleu",
        "image": "",
        "stations": [
            {
                "name": "France Bleu 107.1",
                "image": "",
                "url": "http://direct.francebleu.fr/live/fb1071-midfi.mp3"
            },
            {
                "name": "France Bleu Alsace",
                "image": "",
                "url": "http://direct.francebleu.fr/live/fbalsace-lofi.mp3"
            },
            {
                "name": "France Bleu Armorique",
                "image": "",
                "url": "http://direct.francebleu.fr/live/fbarmorique-lofi.mp3"
            },
            {
                "name": "France Bleu Auxerre",
                "image": "",
                "url": "http://direct.francebleu.fr/live/fbauxerre-lofi.mp3"
            },
            {
                "name": "France Bleu Azur",
                "image": "",
                "url": "http://direct.francebleu.fr/live/fbazur-lofi.mp3"
            },
            {
                "name": "France Bleu Basse Normandie",
                "image": "",
                "url": "http://direct.francebleu.fr/live/fbbassenormandie-lofi.mp3"
            },
            {
                "name": "France Bleu Bearn",
                "image": "",
                "url": "http://direct.francebleu.fr/live/fbbearn-lofi.mp3"
            },
            {
                "name": "France Bleu Belfort Montb\u00e9liard",
                "image": "",
                "url": "http://direct.francebleu.fr/live/fbbelfort-lofi.mp3"
            },
            {
                "name": "France Bleu Berry",
                "image": "",
                "url": "http://direct.francebleu.fr/live/fbberry-lofi.mp3"
            },
            {
                "name": "France Bleu Besan\u00e7on",
                "image": "",
                "url": "http://direct.francebleu.fr/live/fbbesancon-lofi.mp3"
            },
            {
                "name": "France Bleu Bourgogne",
                "image": "",
                "url": "http://direct.francebleu.fr/live/fbbourgogne-lofi.mp3"
            },
            {
                "name": "France Bleu Breizh Izel",
                "image": "",
                "url": "http://direct.francebleu.fr/live/fbbreizizel-lofi.mp3"
            },
            {
                "name": "France Bleu Champagne-Ardenne",
                "image": "",
                "url": "http://direct.francebleu.fr/live/fbchampagne-lofi.mp3"
            },
            {
                "name": "France Bleu Cotentin",
                "image": "",
                "url": "http://direct.francebleu.fr/live/fbcotentin-lofi.mp3"
            },
            {
                "name": "France Bleu Creuse",
                "image": "",
                "url": "http://direct.francebleu.fr/live/fbcreuse-lofi.mp3"
            },
            {
                "name": "France Bleu Dr\u00f4me Ard\u00e8che",
                "image": "",
                "url": "http://direct.francebleu.fr/live/fbdromeardeche-lofi.mp3"
            },
            {
                "name": "France Bleu Elsass",
                "image": "",
                "url": "http://direct.francebleu.fr/live/RFFbelsass-lofi.mp3"
            },
            {
                "name": "France Bleu RCFM",
                "image": "",
                "url": "http://direct.francebleu.fr/live/fbfrequenzamora-lofi.mp3"
            },
            {
                "name": "France Bleu Gard Loz\u00e8re",
                "image": "",
                "url": "http://direct.francebleu.fr/live/fbgardlozere-lofi.mp3"
            },
            {
                "name": "France Bleu Gascogne",
                "image": "",
                "url": "http://direct.francebleu.fr/live/fbgascogne-lofi.mp3"
            },
            {
                "name": "France Bleu Gironde",
                "image": "",
                "url": "http://direct.francebleu.fr/live/fbgironde-lofi.mp3"
            },
            {
                "name": "France Bleu Haute Normandie",
                "image": "",
                "url": "http://direct.francebleu.fr/live/fbhautenormandie-lofi.mp3"
            },
            {
                "name": "France Bleu H\u00e9rault",
                "image": "",
                "url": "http://direct.francebleu.fr/live/fbherault-lofi.mp3"
            },
            {
                "name": "France Bleu Is\u00e8re",
                "image": "",
                "url": "http://direct.francebleu.fr/live/fbisere-lofi.mp3"
            },
            {
                "name": "France Bleu La Rochelle",
                "image": "",
                "url": "http://direct.francebleu.fr/live/fblarochelle-lofi.mp3"
            },
            {
                "name": "France Bleu Limousin",
                "image": "",
                "url": "http://direct.francebleu.fr/live/fblimousin-lofi.mp3"
            },
            {
                "name": "France Bleu Loire Oc\u00e9an",
                "image": "",
                "url": "http://direct.francebleu.fr/live/fbloireocean-lofi.mp3"
            },
            {
                "name": "France Bleu Lorraine Nord",
                "image": "",
                "url": "http://direct.francebleu.fr/live/fblorrainenord-lofi.mp3"
            },
            {
                "name": "France Bleu Maine",
                "image": "",
                "url": "http://direct.francebleu.fr/live/fbmaine-lofi.mp3"
            },
            {
                "name": "France Bleu Mayenne",
                "image": "",
                "url": "http://direct.francebleu.fr/live/fbmayenne-lofi.mp3"
            },
            {
                "name": "France Bleu Nord",
                "image": "",
                "url": "http://direct.francebleu.fr/live/fbnord-lofi.mp3"
            },
            {
                "name": "France Bleu Orl\u00e9ans",
                "image": "",
                "url": "http://direct.francebleu.fr/live/fborleans-lofi.mp3"
            },
            {
                "name": "France Bleu Pays Basque",
                "image": "",
                "url": "http://direct.francebleu.fr/live/fbpaysbasque-lofi.mp3"
            },
            {
                "name": "France Bleu Pays d\u2019Auvergne",
                "image": "",
                "url": "http://direct.francebleu.fr/live/fbpaysdauvergne-lofi.mp3"
            },
            {
                "name": "France Bleu Pays de Savoie",
                "image": "",
                "url": "http://direct.francebleu.fr/live/fbpaysdesavoie-lofi.mp3"
            },
            {
                "name": "France Bleu P\u00e9rigord",
                "image": "",
                "url": "http://direct.francebleu.fr/live/fbperigord-lofi.mp3"
            },
            {
                "name": "France Bleu Picardie",
                "image": "",
                "url": "http://direct.francebleu.fr/live/fbpicardie-lofi.mp3"
            },
            {
                "name": "France Bleu Poitou",
                "image": "",
                "url": "http://direct.francebleu.fr/live/fbpoitou-lofi.mp3"
            },
            {
                "name": "France Bleu Provence",
                "image": "",
                "url": "http://direct.francebleu.fr/live/fbprovence-lofi.mp3"
            },
            {
                "name": "France Bleu Roussillon",
                "image": "",
                "url": "http://direct.francebleu.fr/live/fbroussillon-lofi.mp3"
            },
            {
                "name": "France Bleu Saint \u00c9tienne Loire",
                "image": "",
                "url": "http://direct.francebleu.fr/live/fbstetienne-lofi.mp3"
            },
            {
                "name": "France Bleu Sud Lorraine",
                "image": "",
                "url": "http://direct.francebleu.fr/live/fbsudlorraine-lofi.mp3"
            },
            {
                "name": "France Bleu Toulouse",
                "image": "",
                "url": "http://direct.francebleu.fr/live/fbtoulouse-lofi.mp3"
            },
            {
                "name": "France Bleu Touraine",
                "image": "",
                "url": "http://direct.francebleu.fr/live/fbtouraine-lofi.mp3"
            },
            {
                "name": "France Bleu Vaucluse",
                "image": "",
                "url": "http://direct.francebleu.fr/live/fbvaucluse-lofi.mp3"
            }
        ]
    },
    {
        "group": "ODS Radio",
        "image": "",
        "stations": [
            {
                "name": "ODS Radio (Radio des Alpes)",
                "image": "",
                "url": "http://ods.ice.infomaniak.ch/ods-high.mp3"
            },
            {
                "name": "ODS Ann\u00e9es 80",
                "image": "",
                "url": "http://statslive.infomaniak.ch/playlist/ods-wr01/ods-wr01.mp3/playlist.m3u"
            }
        ]
    },
    {
        "group": "Ou\u00ef FM",
        "image": "",
        "stations": [
            {
                "name": "Ou\u00ef FM",
                "image": "",
                "url": "http://ouifm.ice.infomaniak.ch/ouifm-high.mp3"
            },
            {
                "name": "Ou\u00ef Alternatif",
                "image": "",
                "url": "http://ouifm2.ice.infomaniak.ch/ouifm2.mp3"
            },
            {
                "name": "Ou\u00ef Collector",
                "image": "",
                "url": "http://ouifm2.ice.infomaniak.ch/ouifm3.mp3"
            },
            {
                "name": "Ou\u00ef Blues",
                "image": "",
                "url": "http://ouifm4.ice.infomaniak.ch/ouifm4.mp3"
            },
            {
                "name": "Ou\u00ef Ind\u00e9pendant",
                "image": "",
                "url": "http://ouifm2.ice.infomaniak.ch/ouifm5.mp3"
            }
        ]
    },
    {
        "group": "Radios Fera Rock",
        "image": "",
        "stations": [
            {
                "name": "(FRock) 666",
                "image": "",
                "url": "http://radio666.net:8000/"
            },
            {
                "name": "(FRock) B\u00e9ton",
                "image": "",
                "url": "http://213.186.61.62:8400"
            },
            {
                "name": "(FRock) CIBL",
                "image": "",
                "url": "http://stream02.ustream.ca:8000/cibl128.mp3"
            },
            {
                "name": "(FRock) Coloriage FM",
                "image": "",
                "url": "http://str15.streamakaci.com:9590/"
            },
            {
                "name": "(FRock) Coteaux",
                "image": "",
                "url": "http://str80.streamakaci.com:7960/"
            },
            {
                "name": "(FRock) Radio en construction",
                "image": "",
                "url": "http://str0.creacast.com:80/rec"
            },
            {
                "name": "(FRock) Primitive",
                "image": "",
                "url": "http://www.radioprimitive.fr:8000/live"
            },
            {
                "name": "(FRock) Sol FM",
                "image": "",
                "url": "http://str15.streamakaci.com:9490/"
            }
        ]
    },
    {
        "group": "RFM",
        "image": "",
        "stations": [
            {
                "name": "RFM",
                "image": "",
                "url": "http://mp3lg4.tdf-cdn.com/8376/goo_091150.mp3"
            }
        ]
    },
    {
        "group": "Associatives et diff\u00e9rentes",
        "image": "",
        "stations": [
            {
                "name": "Alta - Canzona Corsa",
                "image": "",
                "url": "http://str80.streamakaci.com:7010/"
            },
            {
                "name": "Bide et Musique - vari\u00e9t\u00e9 60-70-80",
                "image": "",
                "url": "http://relay2.bide-et-musique.com:9100"
            },
            {
                "name": "Chanteurs.org - Artistes disparus",
                "image": "",
                "url": "http://www.chanteurs.org/radio.m3u"
            },
            {
                "name": "Ici et Maintenant",
                "image": "",
                "url": "http://radio.rim952.fr:8000/stream.mp3"
            },
            {
                "name": "La Cl\u00e9 Des Ondes",
                "image": "",
                "url": "http://radio.lacdo.org:80/stream"
            },
            {
                "name": "Radio Alpa",
                "image": "",
                "url": "http://radioalpa.com:8000/"
            },
            {
                "name": "Radio Alpine Meilleure",
                "image": "",
                "url": "http://91.121.62.121:8310/"
            },
            {
                "name": "Radio Bro Gwened (Bretagne)",
                "image": "",
                "url": "http://rbg.online.stalig.net/live.mp3.m3u"
            },
            {
                "name": "Radio Craponne",
                "image": "",
                "url": "http://radio-shoutcast.cyber-streaming.com:8010/listen.pls"
            },
            {
                "name": "Radio Mille Pattes (Reggae)",
                "image": "",
                "url": "http://broadcast.infomaniak.net:80/millepattes-high.mp3"
            },
            {
                "name": "Radio Nova",
                "image": "",
                "url": "http://broadcast.infomaniak.net:80/radionova-high.mp3"
            },
            {
                "name": "REN La Radio Souvenirs",
                "image": "",
                "url": "http://listen.radionomy.com/ren"
            }
        ]
    },
    {
        "group": "Personnalit\u00e9s",
        "image": "",
        "stations": [
            {
                "name": "RMF Beatles Mania",
                "image": "",
                "url": "http://www.miastomuzyki.pl/n/rmfbeatlemania.pls"
            },
            {
                "name": "RMF Depeche Mode",
                "image": "",
                "url": "http://www.miastomuzyki.pl/n/rmfdepechemode.pls"
            },
            {
                "name": "RMF Michael Jackson",
                "image": "",
                "url": "http://www.miastomuzyki.pl/n/rmfmichaeljackson.pls"
            },
            {
                "name": "RMF Queen",
                "image": "",
                "url": "http://www.miastomuzyki.pl/n/rmfqueen.pls"
            }
        ]
    },
    {
        "group": "Talk",
        "image": "",
        "stations": [
            {
                "name": "BFM",
                "image": "",
                "url": "http://bfmbusiness.scdn.arkena.com/bfmbusiness.mp3"
            },
            {
                "name": "Europe 1",
                "image": "",
                "url": "http://mp3lg3.scdn.arkena.com/10489/europe1.mp3"
            }
        ]
    },
    {
        "group": "Autres",
        "image": "",
        "stations": [
            {
                "name": "alouette fr",
                "image": "",
                "url": "http://www.alouette.fr/alouette.m3u"
            },
            {
                "name": "Sing sing Radio",
                "image": "",
                "url": "http://www.sing-sing.org/confort2.pls"
            },
            {
                "name": "Radio Pulsar",
                "image": "",
                "url": "http://91.121.62.121:8100/listen.pls"
            },
            {
                "name": "Rockenfolie Radio",
                "image": "",
                "url": "http://www.rockenfolie.com/players/ecouter.m3u"
            },
            {
                "name": "OxyRadio hd",
                "image": "",
                "url": "http://www.oxyradio.net:8000/hd.mp3"
            },
            {
                "name": "Zouk FM",
                "image": "",
                "url": "http://sv3.vestaradio.com:6540"
            }
        ]
    },
    {
        "group": "Love Songs",
        "image": "",
        "stations": [
            {
                "name": "Energy Love",
                "image": "",
                "url": "http://broadcast.infomaniak.ch/energylove-high.mp3.m3u"
            },
            {
                "name": "M2 Radio - Love",
                "image": "",
                "url": "http://www.m2radio.fr/pls/m2love_winamp.m3u"
            }
        ]
    },
    {
        "group": "Oldies",
        "image": "",
        "stations": [
            {
                "name": "AM 1710",
                "image": "",
                "url": "http://lin2.ash.fast-serv.com:9022/listen.pls"
            },
            {
                "name": "WNAR",
                "image": "",
                "url": "http://live.wnar-am.com:8500/listen.pls"
            },
            {
                "name": "SKY.fm Oldies",
                "image": "",
                "url": "http://listen.sky.fm/public1/oldies.pls"
            }
        ]
    },
    {
        "group": "Outre Mer",
        "image": "",
        "stations": [
            {
                "name": "Guadeloupe - RCI Radio Cara\u00efbe Internationale",
                "image": "",
                "url": "http://91.121.163.143:8000/rcigp_relay2.mp3.m3u"
            },
            {
                "name": "Guadeloupe - RFO",
                "image": "",
                "url": "http://mp3.live.tv-radio.com/rfo/all/rfoguadeloupe-128k.mp3"
            },
            {
                "name": "Guyane - RFO",
                "image": "",
                "url": "http://mp3.live.tv-radio.com/rfo/all/rfo_guyane-128k.mp3"
            },
            {
                "name": "Ile de la R\u00e9union - Generation 974",
                "image": "",
                "url": "http://srv6.streaming-ingenierie.fr:8024"
            },
            {
                "name": "Ile de la R\u00e9union - Kreol Fm",
                "image": "",
                "url": "http://91.121.107.206:8700/kreol.mp3"
            },
            {
                "name": "Ile de la R\u00e9union - RFO",
                "image": "",
                "url": "http://mp3.live.tv-radio.com/rfo/all/rfo_reunion-128k.mp3"
            },
            {
                "name": "Martinique - RBR",
                "image": "",
                "url": "http://rbr.vestaradio.com/listen.m3u"
            },
            {
                "name": "Martinique - RCI Radio Cara\u00efbe Internationale",
                "image": "",
                "url": "http://94.23.9.13:8000/stream.m3u"
            },
            {
                "name": "Martinique - RFO",
                "image": "",
                "url": "http://mp3.live.tv-radio.com/rfo/all/rfomartinique-128k.mp3"
            },
            {
                "name": "Martinique - Super Radio : La radio des jeunes",
                "image": "",
                "url": "http://str81.streamakaci.com:9160"
            },
            {
                "name": "Mayotte - RFO",
                "image": "",
                "url": "http://mp3.live.tv-radio.com/rfo/all/rfomayotte-48k.mp3"
            },
            {
                "name": "Nouvelle Cal\u00e9donie - Radio Djiido",
                "image": "",
                "url": "http://radiodjiido.nc:8002/"
            },
            {
                "name": "Nouvelle Cal\u00e9donie - RFO",
                "image": "",
                "url": "http://mp3.live.tv-radio.com/rfo/all/rfo_nouvellecaledonie-128k.mp3"
            },
            {
                "name": "Polyn\u00e9sie - RFO",
                "image": "",
                "url": "http://mp3.live.tv-radio.com/rfo/all/rfo_polynesie-128k.mp3"
            }
        ]
    },
    {
        "group": "Afrique",
        "image": "",
        "stations": [
            {
                "name": "Africa N\u00b01 - Paris",
                "image": "",
                "url": "http://african1paris.ice.infomaniak.ch/african1paris-128.mp3"
            },
            {
                "name": "Africa N\u00b01 (Coup\u00e9 D\u00e9cal\u00e9)",
                "image": "",
                "url": "http://webradio1.ice.infomaniak.ch/webradio1-128.mp3"
            },
            {
                "name": "Africa N\u00b01 (Mandingue)",
                "image": "",
                "url": "http://webradio2.ice.infomaniak.ch/webradio2-128.mp3"
            },
            {
                "name": "Africa N\u00b01 (Naija)",
                "image": "",
                "url": "http://webradio3.ice.infomaniak.ch/webradio3-128.mp3"
            },
            {
                "name": "Africa N\u00b01 (Rumba)",
                "image": "",
                "url": "http://webradio4.ice.infomaniak.ch/webradio4-128.mp3"
            },
            {
                "name": "Alg\u00e9rie - Radio Andalousse",
                "image": "",
                "url": "http://listen.radionomy.com/andalousse.m3u"
            },
            {
                "name": "Cameroun - Cameroon voice",
                "image": "",
                "url": "http://cameroonvoice.com:1748/"
            },
            {
                "name": "Cameroun - Radio RTS",
                "image": "",
                "url": "http://yourvida.serverroom.us:5170/"
            },
            {
                "name": "Farafina Radio : Premiere web radio afro",
                "image": "",
                "url": "http://farafinaradio.com/pls/farafina.m3u"
            },
            {
                "name": "Guin\u00e9e - Nostalgie",
                "image": "",
                "url": "http://www.streamakaci.com/radios/nostalgieguinee.m3u"
            },
            {
                "name": "Ile Maurice - MBC Best FM",
                "image": "",
                "url": "mms://mediaserver.intnet.mu/bestfm"
            },
            {
                "name": "Ile Maurice - MBC Kool FM Radio Maurice",
                "image": "",
                "url": "mms://mediaserver.intnet.mu/mbcrm1"
            },
            {
                "name": "Madagascar - Radio Vazo Gasy",
                "image": "",
                "url": "http://stream.radiovazogasy.com:8001/"
            },
            {
                "name": "Maroc - Aswat",
                "image": "",
                "url": "http://broadcaster.infomaniak.ch/aswat-high.mp3"
            },
            {
                "name": "Maroc - Chada FM",
                "image": "",
                "url": "http://broadcast.infomaniak.ch/chadafm-high.mp3.m3u"
            }
        ]
    },
    {
        "group": "RTBF",
        "image": "",
        "stations": [
            {
                "name": "Classic 21 (RTBF)",
                "image": "",
                "url": "http://classic21.ice.infomaniak.ch/classic21.mp3"
            },
            {
                "name": "Pure FM",
                "image": "",
                "url": "http://www.static.rtbf.be/radio/purefm/m3u/pure_128k.m3u "
            },
            {
                "name": "La Premi\u00e8re (RTBF)",
                "image": "",
                "url": "http://www.static.rtbf.be/radio/lapremiere/m3u/prem128.m3u"
            },
            {
                "name": "VivaCit\u00e9 Bruxelles (RTBF)",
                "image": "",
                "url": "http://vivacitebruxelles.ice.infomaniak.ch/vivacitebruxelles.mp3"
            },
            {
                "name": "Warm (Li\u00e8ge)",
                "image": "",
                "url": "http://stream01.warm.fm:9002/listen.pls"
            }
        ]
    },
    {
        "group": "Les r\u00e9seaux provinciaux",
        "image": "",
        "stations": [
            {
                "name": "SudRadio",
                "image": "",
                "url": "http://www.ecoutez.biz:8000/live"
            },
            {
                "name": "Warm (Li\u00e8ge)",
                "image": "",
                "url": "http://stream01.warm.fm:9002/listen.pls"
            }
        ]
    },
    {
        "group": "R\u00e9seau urbain",
        "image": "",
        "stations": [
            {
                "name": "Fun Radio",
                "image": "",
                "url": "http://www.funradio.be/player/"
            },
            {
                "name": "Fun Radiov2",
                "image": "",
                "url": "http://broadcast.infomaniak.net:80/funradiobe-high.mp3"
            }
        ]
    },
    {
        "group": "Belgie",
        "image": "",
        "stations": [
            {
                "name": "Club FM",
                "image": "",
                "url": "http://www.clubfmserver.be:8000/clubfm.mp3"
            }
        ]
    },
    {
        "group": "Canada",
        "image": "",
        "stations": [
            {
                "name": "1\u00e8re chaine - Qu\u00e9bec",
                "image": "",
                "url": "http://2QMTL0.akacast.akamaistream.net:80/7/953/177387/v1/rc.akacast.akamaistream.net/2QMTL0"
            },
            {
                "name": "Boomer AM1570 (Laval)",
                "image": "",
                "url": "http://www.xltrax.com:8620/;"
            },
            {
                "name": "CFLM (La Tuque)",
                "image": "",
                "url": "http://www.xltrax.com:8200/"
            },
            {
                "name": "CHNC (Gasp\u00e9sie)",
                "image": "",
                "url": "http://xltrax.com:8140/"
            },
            {
                "name": "CHOI RadioX (Qu\u00e9bec)",
                "image": "",
                "url": "http://67.212.85.90/choi.mp3.m3u"
            },
            {
                "name": "CIBL - Radio Montreal",
                "image": "",
                "url": "http://stream02.ustream.ca:8000/cibl128.mp3"
            },
            {
                "name": "CJRG - Radio Gaspesie",
                "image": "",
                "url": "http://stream02.ustream.ca:8000/cjrg128.mp3"
            },
            {
                "name": "CKJM FM (Cheticamp, Nouvelle Ecosse)",
                "image": "",
                "url": "mms://ysj00ms01s0.aliant.net/CKJM"
            },
            {
                "name": "CKRH FM (Halifax, Nouvelle Ecosse)",
                "image": "",
                "url": "mms://ysj00ms01s0.aliant.net/CKRH"
            },
            {
                "name": "CKRL 89.1 (Ville de Qu\u00e9bec - Vari\u00e9t\u00e9s)",
                "image": "",
                "url": "http://stream02.ustream.ca:8000/ckrl128.mp3"
            },
            {
                "name": "Radio Y\u00e9-Y\u00e9",
                "image": "",
                "url": "http://www.radioyeye.com/ecoute.m3u"
            }
        ]
    },
    {
        "group": "Suisse",
        "image": "",
        "stations": [
            {
                "name": "RSR La 1\u00e8re",
                "image": "",
                "url": "http://stream.srg-ssr.ch/la-1ere/mp3_128.m3u"
            },
            {
                "name": "RSR Espace 2",
                "image": "",
                "url": "http://stream.srg-ssr.ch/espace-2/mp3_128.m3u"
            },
            {
                "name": "RSR Couleur3",
                "image": "",
                "url": "http://stream.srg-ssr.ch/couleur3/mp3_128.m3u"
            },
            {
                "name": "RSR Option Musique",
                "image": "",
                "url": "http://stream.srg-ssr.ch/option-musique/mp3_128.m3u"
            },
            {
                "name": "VoxInox",
                "image": "",
                "url": "http://stream.voxinox.ch/voxinox1h/listen.pls"
            },
            {
                "name": "VoxInox 2",
                "image": "",
                "url": "http://stream.voxinox.ch/voxinox2h/listen.pls"
            }
        ]
    },
    {
        "group": "Celtique",
        "image": "",
        "stations": [
            {
                "name": "Hermine Radio Celtic",
                "image": "",
                "url": "http://streaming208.radionomy.com/TradCan?group=16"
            },
            {
                "name": "Irish fovourites",
                "image": "",
                "url": "http://176.31.240.114:8326"
            },
            {
                "name": "Live from Dublin (trad, folk)",
                "image": "",
                "url": "http://66.90.73.250:115/"
            },
            {
                "name": "Radio Bro Gwened",
                "image": "",
                "url": "http://rbg.online.stalig.net/live.mp3.m3u"
            },
            {
                "name": "Radio Celtic Lands",
                "image": "",
                "url": "http://listen.radionomy.com/r-c-l.m3u"
            },
            {
                "name": "RMF Celtic",
                "image": "",
                "url": "http://www.miastomuzyki.pl/n/rmfceltic.pls"
            }
        ]
    },
    {
        "group": "Classique",
        "image": "",
        "stations": [
            {
                "name": "France Musique ",
                "image": "",
                "url": "http://audio.scdn.arkena.com/11008/france_musique_mp3/france_musique_mp3-128k.m3u "
            },
            {
                "name": "Musiq'3 (RTBF)",
                "image": "",
                "url": "http://musiq3.ice.infomaniak.ch/musiq3.mp3"
            },
            {
                "name": "Radio Suisse Classique",
                "image": "",
                "url": "http://www.radiosuisseclassique.ch/live/aacp.m3u"
            },
            {
                "name": "Radio Classique",
                "image": "",
                "url": "http://broadcast.infomaniak.net:80/radioclassique-high.mp3"
            },
            {
                "name": "Radio Mozart (Marseille)",
                "image": "",
                "url": "http://listen.radionomy.com/radio-mozart"
            },
            {
                "name": "Venice Classic Radio Italia",
                "image": "",
                "url": "http://109.123.116.202:8022/listen.pls"
            },
            {
                "name": "KDFC",
                "image": "",
                "url": "http://provisioning.streamtheworld.com/pls/KDFCFM.pls"
            },
            {
                "name": "Classic FM",
                "image": "",
                "url": "http://media-ice.musicradio.com/ClassicFMMP3.m3u"
            },
            {
                "name": "WCPE",
                "image": "",
                "url": "http://www.ibiblio.org/wcpe/wcpe.pls"
            },
            {
                "name": "CINEMIX",
                "image": "",
                "url": "http://cinemix.us/cine.asx"
            },
            {
                "name": "SKY.fm Soundtracks",
                "image": "",
                "url": "http://listen.sky.fm/public1/soundtracks.pls"
            },
            {
                "name": "SKY.fm Mostly Classical",
                "image": "",
                "url": "http://listen.sky.fm/public1/classical.pls"
            }
        ]
    },
    {
        "group": "Cool / New Age",
        "image": "",
        "stations": [
            {
                "name": "SKY.fm Nature",
                "image": "",
                "url": "http://listen.sky.fm/public1/nature.pls"
            },
            {
                "name": "SKY.fm New Age",
                "image": "",
                "url": "http://listen.sky.fm/public1/newage.pls"
            },
            {
                "name": "SKY.fm Relaxation",
                "image": "",
                "url": "http://listen.sky.fm/public1/relaxation.pls"
            }
        ]
    },
    {
        "group": "Chill",
        "image": "",
        "stations": [
            {
                "name": "Beat Blender",
                "image": "",
                "url": "http://somafm.com/beatblender.pls"
            },
            {
                "name": "Secret Agent",
                "image": "",
                "url": "http://somafm.com/secretagent.pls"
            },
            {
                "name": "Groove Salad",
                "image": "",
                "url": "http://somafm.com/groovesalad.pls"
            },
            {
                "name": "Illinois Street Lounge",
                "image": "",
                "url": "http://somafm.com/illstreet.pls"
            },
            {
                "name": "RMF Chillout",
                "image": "",
                "url": "http://www.miastomuzyki.pl/n/rmfchillout.pls"
            }
        ]
    },
    {
        "group": "Country",
        "image": "",
        "stations": [
            {
                "name": "CHOY Fm 99.9 L'Acadie Country",
                "image": "",
                "url": "mms://ysj00ms01s0.aliant.net/CHOY"
            },
            {
                "name": "CJSE - Country 89",
                "image": "",
                "url": "mms://ysj00ms01s0.aliant.net/CJSE"
            },
            {
                "name": "90's Country - 181 fm",
                "image": "",
                "url": "http://www.181.fm/stream/asx/181-90scountry"
            },
            {
                "name": "Birdhill Radio Live Irish and Country Music",
                "image": "",
                "url": "http://95.211.76.204:8000"
            },
            {
                "name": "Boot Liquor",
                "image": "",
                "url": "http://somafm.com/bootliquor.pls"
            },
            {
                "name": "Country 108",
                "image": "",
                "url": "http://www.country108.com/listen.pls"
            },
            {
                "name": "Country Family",
                "image": "",
                "url": "http://listen.radionomy.com/radio-country-family.m3u"
            },
            {
                "name": "CountryMusic 24",
                "image": "",
                "url": "http://91.250.77.9:9000"
            },
            {
                "name": "Country Radio Official",
                "image": "",
                "url": "http://streaming202.radionomy.com/Country-Radio-Official"
            },
            {
                "name": "Eagle Country Radio",
                "image": "",
                "url": "http://www.eaglecountryradio.net/pls/hd.m3u"
            },
            {
                "name": "Front Porch (Bluegrass)  - 181 fm",
                "image": "",
                "url": "http://www.181.fm/stream/asx/181-frontporch"
            },
            {
                "name": "Kickin' Country - 181 fm",
                "image": "",
                "url": "http://www.181.fm/stream/asx/181-kickincountry"
            },
            {
                "name": "Real Country - 181 fm",
                "image": "",
                "url": "http://www.181.fm/stream/asx/181-realcountry"
            },
            {
                "name": "SKY.fm Country",
                "image": "",
                "url": "http://listen.sky.fm/public1/country.pls"
            },
            {
                "name": "US 181 - 181 fm",
                "image": "",
                "url": "http://www.181.fm/stream/asx/181-us181"
            }
        ]
    },
    {
        "group": "Jazz / Blues",
        "image": "",
        "stations": [
            {
                "name": "Jazz Bar Blues",
                "image": "",
                "url": "http://listen.radionomy.com/jazz-bar-blues"
            },
            {
                "name": "Play Misty for Me (Jazz)",
                "image": "",
                "url": "http://streaming.radionomy.com:8000/Play-Misty-for-Me.m3u"
            },
            {
                "name": "SKY.fm Piano Jazz",
                "image": "",
                "url": "http://listen.sky.fm/public1/pianojazz.pls"
            },
            {
                "name": "SKY.fm Smooth Jazz",
                "image": "",
                "url": "http://listen.sky.fm/public1/smoothjazz.pls"
            },
            {
                "name": "Smooth Jazz",
                "image": "",
                "url": "http://smoothjazz.com/streams/smoothjazz_128.pls"
            },
            {
                "name": "Sonic Universe",
                "image": "",
                "url": "http://somafm.com/sonicuniverse.pls"
            }
        ]
    },
    {
        "group": "Jazz Radio",
        "image": "",
        "stations": [
            {
                "name": "Jazz Radio",
                "image": "",
                "url": "http://broadcast.infomaniak.ch/jazzradio-high.mp3"
            },
            {
                "name": "Black Music",
                "image": "",
                "url": "http://jazzblackmusic.ice.infomaniak.ch/jazzblackmusic-high.mp3"
            },
            {
                "name": "Blues",
                "image": "",
                "url": "http://jazzblues.ice.infomaniak.ch/jazzblues-high.mp3"
            },
            {
                "name": "Classic Jazz",
                "image": "",
                "url": "http://jazz-wr01.ice.infomaniak.ch/jazz-wr01-128.mp3"
            },
            {
                "name": "Contemporary Jazz",
                "image": "",
                "url": "http://jazz-wr05.ice.infomaniak.ch/jazz-wr05-128.mp3"
            },
            {
                "name": "Electro Swing",
                "image": "",
                "url": "http://jazz-wr04.ice.infomaniak.ch/jazz-wr04-128.mp3"
            },
            {
                "name": "Funk",
                "image": "",
                "url": "http://jazz-wr06.ice.infomaniak.ch/jazz-wr06-128.mp3"
            },
            {
                "name": "Gospel",
                "image": "",
                "url": "http://jazz-wr07.ice.infomaniak.ch/jazz-wr07-128.mp3"
            },
            {
                "name": "Happy Hour by Bart - Baker",
                "image": "",
                "url": "http://jazz-wr14.ice.infomaniak.ch/jazz-wr14-128.mp3"
            },
            {
                "name": "Jazz et classique",
                "image": "",
                "url": "http://jazz-wr17.ice.infomaniak.ch/jazz-wr17-128.mp3"
            },
            {
                "name": "Jazzy French",
                "image": "",
                "url": "http://jazz-wr18.ice.infomaniak.ch/jazz-wr18-128.mp3"
            },
            {
                "name": "Jazz Manouche",
                "image": "",
                "url": "http://jazz-wr02.ice.infomaniak.ch/jazz-wr02-128.mp3"
            },
            {
                "name": "Ladies - Crooners",
                "image": "",
                "url": "http://jazzladiescrooners.ice.infomaniak.ch/jazzladiescrooners-high.mp3"
            },
            {
                "name": "Latin Jazz",
                "image": "",
                "url": "http://jazz-wr09.ice.infomaniak.ch/jazz-wr09-128.mp3"
            },
            {
                "name": "Lounge",
                "image": "",
                "url": "http://jazzlounge.ice.infomaniak.ch/jazzlounge-high.mp3"
            },
            {
                "name": "New Orleans",
                "image": "",
                "url": "http://jazz-wr03.ice.infomaniak.ch/jazz-wr03-128.mp3"
            },
            {
                "name": "Only Women",
                "image": "",
                "url": "http://jazz-wr16.ice.infomaniak.ch/jazz-wr16-128.mp3"
            },
            {
                "name": "Reprises",
                "image": "",
                "url": "http://reprises.ice.infomaniak.ch/reprises-high.mp3"
            },
            {
                "name": "Soul",
                "image": "",
                "url": "http://jazz-wr10.ice.infomaniak.ch/jazz-wr10-128.mp3"
            },
            {
                "name": "Soul Food Radio by DJ Philgood",
                "image": "",
                "url": "http://jazz-wr12.ice.infomaniak.ch/jazz-wr12-128.mp3"
            }
        ]
    },
    {
        "group": "Latin",
        "image": "",
        "stations": [
            {
                "name": "Ambiance-Brasil",
                "image": "",
                "url": "http://streaming207.radionomy.com/Ambiance-Brasil"
            },
            {
                "name": "Flamenco Radio",
                "image": "",
                "url": "http://canalflamenco.rtva.stream.flumotion.com/rtva/canalflamenco.mp3.m3u"
            },
            {
                "name": "Radio Animati (Mangas) - Italia",
                "image": "",
                "url": "http://server.radioanimati.it/listen.pls"
            },
            {
                "name": "Radio Italia Anni 60",
                "image": "",
                "url": "http://78.129.231.143:7140/listen.pls"
            },
            {
                "name": "Radio Margherita",
                "image": "",
                "url": "http://shoutcast.streamingmedia.it:7072/listen.pls"
            },
            {
                "name": "Radio Margherita Napoli",
                "image": "",
                "url": "http://shoutcast.streamingmedia.it:7074/listen.pls"
            },
            {
                "name": "Radio Sevillanas",
                "image": "",
                "url": "http://94.75.209.28:8192"
            },
            {
                "name": "Radio Tango Velours",
                "image": "",
                "url": "http://tango-velours.fr/radio.m3u"
            },
            {
                "name": "Salsa Mexico HD",
                "image": "",
                "url": "http://radiolatina.info:7218/listen.pls"
            },
            {
                "name": "Salsa Stream",
                "image": "",
                "url": "http://listen.sky.fm/public3/salsa.pls"
            },
            {
                "name": "Top Latino Radio",
                "image": "",
                "url": "http://online.radiodifusion.net:8020/listen.pls"
            }
        ]
    },
    {
        "group": "Pop / Rock",
        "image": "",
        "stations": [
            {
                "name": ".977 Classic Rock",
                "image": "",
                "url": "http://www.977music.com/tunein/web/classicrock.asx"
            },
            {
                "name": "80s Sky.FM",
                "image": "",
                "url": "http://listen.sky.fm/public3/the80s.pls"
            },
            {
                "name": "Covers",
                "image": "",
                "url": "http://somafm.com/covers.pls"
            },
            {
                "name": "Indie Pop Rocks!",
                "image": "",
                "url": "http://somafm.com/indiepop.pls"
            },
            {
                "name": "PopTron",
                "image": "",
                "url": "http://somafm.com/poptron.pls"
            },
            {
                "name": "Radio Paradise",
                "image": "",
                "url": "http://www.radioparadise.com/musiclinks/rp_128aac.m3u"
            },
            {
                "name": "SKY.fm Top Hits",
                "image": "",
                "url": "http://listen.sky.fm/public1/tophits.pls"
            }
        ]
    },
    {
        "group": "Disco & Dance",
        "image": "",
        "stations": [
            {
                "name": "Energy Dance",
                "image": "",
                "url": "http://broadcast.infomaniak.ch/energydance-high.mp3.m3u"
            },
            {
                "name": "Energy Girl",
                "image": "",
                "url": "http://broadcast.infomaniak.ch/energygirl-high.mp3.m3u"
            },
            {
                "name": "Energy Hot",
                "image": "",
                "url": "http://broadcast.infomaniak.ch/energyhot-high.mp3.m3u"
            }
        ]
    },
    {
        "group": "Monster & Death Metal",
        "image": "",
        "stations": [
            {
                "name": "ChroniX Aggression",
                "image": "",
                "url": "http://www.chronixradio.com/chronixaggression/listen/listen.pls"
            },
            {
                "name": "Creatures Of The Night Radio",
                "image": "",
                "url": "http://streaming.ticino.com:8020/listen.pls"
            }
        ]
    },
    {
        "group": "Techno / \u00c9lectronique",
        "image": "",
        "stations": [
            {
                "name": "Black Rock FM",
                "image": "",
                "url": "http://somafm.com/brfm.pls"
            },
            {
                "name": "cliqhop idm",
                "image": "",
                "url": "http://somafm.com/cliqhop.pls"
            },
            {
                "name": "Drone Zone",
                "image": "",
                "url": "http://somafm.com/dronezone.pls"
            },
            {
                "name": "FG Berlin",
                "image": "",
                "url": "http://radiofg.impek.com:80/fge"
            },
            {
                "name": "New Dance Radio",
                "image": "",
                "url": "http://jbstream.net/tunein.php/blackoutworm/playlist.asx"
            },
            {
                "name": "Space Station Soma",
                "image": "",
                "url": "http://somafm.com/spacestation.pls"
            }
        ]
    }
]
